module gitlab.com/pbcom_bobac/sf

go 1.16

require (
	github.com/spf13/cast v1.4.1 // indirect
	github.com/spf13/cobra v1.2.1 // indirect
	github.com/spf13/viper v1.8.1 // indirect
	golang.org/x/sys v0.0.0-20210816074244-15123e1e1f71 // indirect
	golang.org/x/text v0.3.7 // indirect
)
